Name,Sex,WeightClassKg,Division,Age,State,BodyweightKg,Best3SquatKg,Best3BenchKg,Best3DeadliftKg,TotalKg,Bench1Kg,Bench2Kg,Bench3Kg,Deadlift1Kg,Deadlift2Kg,Deadlift3Kg,Deadlift4Kg,Event,Equipment,Place
Kelly Griffith,F,56,Open,34,PA,53.48,82.5,47.5,117.5,247.5,,,,,,,,SBD,Raw,1
Heather Machmer,F,56,Masters 45-49,48,PA,55.97,75,45,100,220,,,,,,,,SBD,Raw,1
Heather Machmer,F,56,Open,48,PA,55.97,75,45,100,220,,,,,,,,SBD,Raw,2
Lauren Conrad,F,60,Juniors 20-24,21,PA,59.01,125.5,70,150.5,346,,,,,,,,SBD,Raw,1
Lauren Conrad,F,60,Open,21,PA,59.01,125.5,70,150.5,346,,,,,,,,SBD,Raw,1
Rebecca Pell,F,60,Open,25,PA,59.92,117.5,60,137.5,315,,,,,,,,SBD,Raw,2
Sarah Sickert,F,60,Juniors 20-24,22,PA,59.92,102.5,62.5,147.5,312.5,,,,,,,,SBD,Raw,2
Sarah Sickert,F,60,Open,22,PA,59.92,102.5,62.5,147.5,312.5,,,,,,,,SBD,Raw,3
Elyse Osborn,F,60,Open,22,PA,59.01,97.5,55,125,277.5,,,,,,,,SBD,Raw,4
Alaina Miczikus,F,67.5,Open,24,PA,66.32,100,52.5,135,287.5,,,,,,,,SBD,Raw,1
Mary Lou Norris,F,67.5,Masters 50-54,52,PA,62.37,102.5,60,115,277.5,,,,,,,,SBD,Raw,1
Mary Lou Norris,F,67.5,Open,52,PA,62.37,102.5,60,115,277.5,,,,,,,,SBD,Raw,2
Kim Doutt,F,75,Masters 55-59,57,PA,72.57,77.5,62.5,105,245,,,,,,,,SBD,Raw,1
Kim Doutt,F,75,Open,57,PA,72.57,77.5,62.5,105,245,,,,,,,,SBD,Raw,1
Stephanie Cruz,F,82.5,Open,27,OH,79.79,110,60,137.5,307.5,,,,,,,,SBD,Raw,1
Sharon Schwartz,F,82.5,Open,53,PA,80.33,105,52.5,140,297.5,,,,,,,,SBD,Raw,2
Emma Thomas,F,82.5,Teen 16-17,16,PA,81.6,92.5,45,132.5,270,,,,,,,,SBD,Raw,1
Emma Thomas,F,82.5,Open,16,PA,81.6,92.5,45,132.5,270,,,,,,,,SBD,Raw,3
Chris Redmond,F,82.5,Open,45,PA,78.24,87.5,52.5,122.5,262.5,,,,,,,,SBD,Raw,4
Riki Napiorkowski,F,90,Open,30,NY,86.64,145,102.5,190,437.5,,,,,,,,SBD,Raw,1
Christina Dean,F,90,Open,33,PA,85.64,122.5,72.5,167.5,362.5,,,,,,,,SBD,Raw,2
Michelle Lawson,F,90,Masters 45-49,48,PA,89.13,115,55,137.5,307.5,,,,,,,,SBD,Raw,1
Michelle Lawson,F,90,Open,48,PA,89.13,115,55,137.5,307.5,,,,,,,,SBD,Raw,3
Erin Lewis,F,90,Teen 14-15,14,PA,88.41,62.5,35,75,172.5,,,,,,,,SBD,Raw,1
Erin Lewis,F,90,Open,14,PA,88.41,62.5,35,75,172.5,,,,,,,,SBD,Raw,4
Autumn Weary,F,90+,Open,27,PA,99.79,125,75,155,355,,,,,,,,SBD,Raw,1
Jonathan Jones,M,48,Youth,9,PA,31.3,47.5,25,65,137.5,,,,,,,,SBD,Raw,1
Bryan Ellenberger,M,67.5,Open,26,PA,67.27,150,105,217.5,472.5,,,,,,,,SBD,Raw,1
Tuan Pham,M,67.5,Open,34,PA,66.36,137.5,102.5,182.5,422.5,,,,,,,,SBD,Raw,2
Levi Lewis,M,67.5,Teen 16-17,17,PA,66.81,147.5,82.5,162.5,392.5,,,,,,,,SBD,Raw,1
Levi Lewis,M,67.5,Open,17,PA,66.81,147.5,82.5,162.5,392.5,,,,,,,,SBD,Raw,3
Jake Hartmann,M,67.5,Teen 18-19,18,PA,65.91,140,80,165,385,,,,,,,,SBD,Raw,1
Jake Hartmann,M,67.5,Open,18,PA,65.91,140,80,165,385,,,,,,,,SBD,Raw,4
Ray Cruz,M,75,Masters 55-59,57,PA,72.39,197.5,117.5,200,515,,,,,,,,SBD,Raw,1
Ray Cruz,M,75,Open,57,PA,72.39,197.5,117.5,200,515,,,,,,,,SBD,Raw,1
Rich Smith,M,75,Open,25,PA,70.49,170,110,227.5,507.5,,,,,,,,SBD,Raw,2
James Lewis,M,75,Teen 18-19,19,PA,74.57,152.5,110,220,482.5,,,,,,,,SBD,Raw,1
James Lewis,M,75,Open,19,PA,74.57,152.5,110,220,482.5,,,,,,,,SBD,Raw,3
Mason McQuillen,M,75,Teen 18-19,18,PA,74.16,155,77.5,182.5,415,,,,,,,,SBD,Raw,2
Mason McQuillen,M,75,Open,18,PA,74.16,155,77.5,182.5,415,,,,,,,,SBD,Raw,4
Keith Schneider,M,82.5,Open,26,OH,81.65,207.5,132.5,250,590,,,,,,,,SBD,Raw,1
Ryan Sherbonely,M,82.5,Juniors 20-24,23,PA,80.65,192.5,117.5,227.5,537.5,,,,,,,,SBD,Raw,1
Ryan Sherbonely,M,82.5,Open,23,PA,80.65,192.5,117.5,227.5,537.5,,,,,,,,SBD,Raw,2
Brian Ennis,M,82.5,Open,57,PA,82.33,157.5,137.5,220,515,,,,,,,,SBD,Raw,3
Jacob Rose,M,82.5,Teen 18-19,19,PA,78.74,147.5,107.5,190,445,,,,,,,,SBD,Raw,1
Jacob Rose,M,82.5,Open,19,PA,78.74,147.5,107.5,190,445,,,,,,,,SBD,Raw,4
Dave Machmer,M,82.5,Masters 50-54,50,PA,81.19,155,107.5,160,422.5,,,,,,,,SBD,Raw,1
Dave Machmer,M,82.5,Open,50,PA,81.19,155,107.5,160,422.5,,,,,,,,SBD,Raw,5
Troy Honard,M,90,Juniors 20-24,23,PA,87.63,185,135,227.5,547.5,,,,,,,,SBD,Raw,1
Troy Honard,M,90,Open,23,PA,87.63,185,135,227.5,547.5,,,,,,,,SBD,Raw,1
Matt Lupo,M,90,Teen 18-19,18,PA,87.63,195,117.5,215,527.5,,,,,,,,SBD,Raw,1
Matt Lupo,M,90,Open,18,PA,87.63,195,117.5,215,527.5,,,,,,,,SBD,Raw,2
Patrick Huntley,M,90,Masters 50-54,52,PA,89.72,182.5,120,200,502.5,,,,,,,,SBD,Raw,1
Patrick Huntley,M,90,Open,52,PA,89.72,182.5,120,200,502.5,,,,,,,,SBD,Raw,3
Josh Smith #21,M,90,Open,34,PA,89.09,175,105,202.5,482.5,,,,,,,,SBD,Raw,4
Walter Heinl,M,90,Open,34,PA,87.45,140,120,207.5,467.5,,,,,,,,SBD,Raw,5
Hunter Dale,M,90,Teen 16-17,16,OH,87.91,142.5,92.5,165,400,,,,,,,,SBD,Raw,1
Hunter Dale,M,90,Open,16,OH,87.91,142.5,92.5,165,400,,,,,,,,SBD,Raw,6
Bugs Bayer,M,90,Masters 70-74,72,PA,88.45,147.5,75,100,322.5,,,,,,,,SBD,Raw,1
Bugs Bayer,M,90,Open,72,PA,88.45,147.5,75,100,322.5,,,,,,,,SBD,Raw,7
Brandon Russell #1,M,90,Open,31,PA,,,,,,,,,,,,,SBD,Raw,DQ
Lenny Creatura,M,100,Masters 60-64,60,CT,97.98,210,160,265,635,,,,,,,,SBD,Raw,1
Lenny Creatura,M,100,Open,60,CT,97.98,210,160,265,635,,,,,,,,SBD,Raw,1
Nate Thompkins,M,100,Open,35,PA,97.84,200,142.5,250,592.5,,,,,,,,SBD,Raw,2
Nick Schneider,M,100,Open,31,PA,94.3,205,130,242.5,577.5,,,,,,,,SBD,Raw,3
Mike Lupo,M,100,Teen 16-17,16,PA,97.25,185,110,205,500,,,,,,,,SBD,Raw,1
Mike Lupo,M,100,Open,16,PA,97.25,185,110,205,500,,,,,,,,SBD,Raw,4
Chris Giglione,M,100,Submasters 35-39,35,PA,94.35,160,115,202.5,477.5,,,,,,,,SBD,Raw,1
Chris Giglione,M,100,Open,35,PA,94.35,160,115,202.5,477.5,,,,,,,,SBD,Raw,5
Jack Butler,M,100,Masters 45-49,45,PA,98.61,145,,,,,,,,,,,SBD,Raw,DQ
Jack Butler,M,100,Open,45,PA,98.61,145,,,,,,,,,,,SBD,Raw,DQ
Travis Litz,M,110,Open,30,PA,107.73,232.5,187.5,180,600,,,,,,,,SBD,Raw,1
Rich Buletko,M,110,Juniors 20-24,21,PA,106.46,210,142.5,220,572.5,,,,,,,,SBD,Raw,1
Rich Buletko,M,110,Open,21,PA,106.46,210,142.5,220,572.5,,,,,,,,SBD,Raw,2
Konzel Jason,M,110,Submasters 35-39,39,PA,106.91,177.5,95,197.5,470,,,,,,,,SBD,Raw,1
Konzel Jason,M,110,Open,39,PA,106.91,177.5,95,197.5,470,,,,,,,,SBD,Raw,3
Dave Schneider,M,110,Masters 60-64,61,OH,,,,,,,,,,,,,SBD,Raw,DQ
Dave Schneider,M,110,Open,61,OH,,,,,,,,,,,,,SBD,Raw,DQ
Chris Lewis,M,110,Masters 40-44,43,PA,107.18,170,125,,,,,,,,,,SBD,Raw,DQ
Chris Lewis,M,110,Open,43,PA,107.18,170,125,,,,,,,,,,SBD,Raw,DQ
Brian Germanoski,M,125,Open,45,PA,123.56,255,150,287.5,692.5,,,,,,,,SBD,Raw,1
Isaac Whistler,M,125,Teen 18-19,18,PA,123.38,245,165,250,660,,,,,,,,SBD,Raw,1
Isaac Whistler,M,125,Open,18,PA,123.38,245,165,250,660,,,,,,,,SBD,Raw,2
Jeff Lawson #3,M,125,Masters 50-54,53,PA,121.56,235,135,272.5,642.5,,,,,,,,SBD,Raw,1
Jeff Lawson #3,M,125,Open,53,PA,121.56,235,135,272.5,642.5,,,,,,,,SBD,Raw,3
Andrew Rettger,M,125,Open,27,PA,121.61,177.5,120,227.5,525,,,,,,,,SBD,Raw,4
Jeremy Burroughs,M,140,Open,28,PA,137.12,282.5,210,260,752.5,,,,,,,,SBD,Raw,1
Glen Shaw,M,140,Open,33,PA,135.62,,,,,,,,,,,,SBD,Raw,DQ
Janet Huntley,F,56,Open,56,PA,55.79,,50,,50,45,47.5,50,,,,,B,Raw,1
Sarah Sickert,F,60,Juniors 20-24,22,PA,59.92,,62.5,,62.5,57.5,62.5,,,,,,B,Raw,1
Sarah Sickert,F,60,Open,22,PA,59.92,,62.5,,62.5,57.5,62.5,,,,,,B,Raw,1
Suzanne Jeffers,F,75,Open,40,NY,73.53,,65,,65,57.5,62.5,65,,,,,B,Raw,1
Kim Doutt,F,75,Masters 55-59,57,PA,72.57,,62.5,,62.5,55,60,62.5,,,,,B,Raw,1
Kim Doutt,F,75,Open,57,PA,72.57,,62.5,,62.5,55,60,62.5,,,,,B,Raw,2
Riki Napiorkowski,F,90,Open,30,NY,86.64,,102.5,,102.5,97.5,102.5,,,,,,B,Raw,1
Tuan Pham,M,67.5,Open,34,PA,66.36,,102.5,,102.5,97.5,102.5,,,,,,B,Raw,1
Noah Rine,M,67.5,Open,14,PA,62.14,,40,,40,32.5,37.5,40,,,,,B,Raw,2
Mason McQuillen,M,75,Teen 18-19,18,PA,74.16,,77.5,,77.5,72.5,77.5,,,,,,B,Raw,1
Mason McQuillen,M,75,Open,18,PA,74.16,,77.5,,77.5,72.5,77.5,,,,,,B,Raw,1
Larry Eastman,M,82.5,Masters 65-69,66,PA,80.92,,115,,115,112.5,115,,,,,,B,Raw,1
Larry Eastman,M,82.5,Open,66,PA,80.92,,115,,115,112.5,115,,,,,,B,Raw,1
Dave Heintzel,M,82.5,Masters 55-59,57,PA,78.93,,92.5,,92.5,87.5,92.5,,,,,,B,Raw,1
Dave Heintzel,M,82.5,Open,57,PA,78.93,,92.5,,92.5,87.5,92.5,,,,,,B,Raw,2
Travis Buffy,M,100,Open,29,PA,99.7,,150,,150,135,145,150,,,,,B,Raw,1
Lance Schrecengost,M,100,Open,48,PA,98.43,,147.5,,147.5,140,147.5,,,,,,B,Raw,2
Travis Litz,M,110,Open,30,PA,107.73,,187.5,,187.5,185,187.5,,,,,,B,Raw,1
Frank Nerone,M,110,Open,36,OH,107.32,,167.5,,167.5,167.5,,,,,,,B,Raw,2
Konzel Jason,M,110,Submasters 35-39,39,PA,106.91,,95,,95,90,95,,,,,,B,Raw,1
Konzel Jason,M,110,Open,39,PA,106.91,,95,,95,90,95,,,,,,B,Raw,3
Sarah Sickert,F,60,Juniors 20-24,22,PA,59.92,,,147.5,147.5,,,,130,140,147.5,151,D,Raw,1
Sarah Sickert,F,60,Open,22,PA,59.92,,,147.5,147.5,,,,130,140,147.5,151,D,Raw,1
Farah Robbins,F,60,Open,33,PA,57.56,,,87.5,87.5,,,,80,87.5,,,D,Raw,2
Kim Doutt,F,75,Masters 55-59,57,PA,72.57,,,105,105,,,,100,102.5,105,,D,Raw,1
Kim Doutt,F,75,Open,57,PA,72.57,,,105,105,,,,100,102.5,105,,D,Raw,1
Riki Napiorkowski,F,90,Open,30,NY,86.64,,,190,190,,,,,182.5,190,,D,Raw,1
Christina Dean,F,90,Open,33,PA,85.64,,,167.5,167.5,,,,147.5,167.5,,,D,Raw,2
Mason McQuillen,M,75,Teen 18-19,18,PA,74.16,,,182.5,182.5,,,,165,175,182.5,,D,Raw,1
Mason McQuillen,M,75,Open,18,PA,74.16,,,182.5,182.5,,,,165,175,182.5,,D,Raw,1
Mark Callista,M,90,Masters 60-64,60,PA,89.9,,,230,230,,,,210,225,230,,D,Raw,1
Mark Callista,M,90,Open,60,PA,89.9,,,230,230,,,,210,225,230,,D,Raw,1
Konzel Jason,M,110,Submasters 35-39,39,PA,106.91,,,197.5,197.5,,,,182.5,197.5,,,D,Raw,1
Konzel Jason,M,110,Open,39,PA,106.91,,,197.5,197.5,,,,182.5,197.5,,,D,Raw,1
Brian Germanoski,M,125,Open,45,PA,123.56,,,287.5,287.5,,,,260,287.5,,,D,Raw,1
Jeff Lawson #3,M,125,Open,53,PA,121.56,,,272.5,272.5,,,,250,262.5,272.5,278,D,Raw,2
