Name,BodyweightKg,State,Best3SquatKg,Best3BenchKg,Best3DeadliftKg,TotalKg,Event,Equipment,Sex,Division,WeightClassKg,Place
Mathew McKinnon,84.37,TN,,,,,SBD,Wraps,M,Teenage 18-19,90,DQ
Joseph Raines,98.88,TN,204.12,124.74,226.8,555.66,SBD,Wraps,M,Teenage 18-19,100,1
Bill Kelly #1,97.98,TN,233.6,129.27,249.48,612.35,SBD,Wraps,M,Juniors,100,1
Ross Wiggin #2,108.41,TN,242.67,165.56,249.48,657.71,SBD,Wraps,M,Juniors,110,1
Tuner Rains,134.72,TN,265.35,192.78,308.44,766.57,SBD,Wraps,M,Juniors,140,1
Traci Baggett,85.05,GA,158.76,72.57,156.49,387.82,SBD,Wraps,F,Open,90,1
Rodney Aulridge,55.79,TN,124.74,102.06,151.95,378.75,SBD,Wraps,M,Open,56,1
Jason Spraker,99.88,TN,226.8,181.44,263.08,671.32,SBD,Wraps,M,Open,100,1
Victor Wharton,91.63,TN,204.12,145.15,256.28,605.55,SBD,Wraps,M,Open,100,2
Mark Farris,108.41,NC,319.78,208.65,276.69,805.13,SBD,Wraps,M,Open,110,1
Britton Leitch,107.5,TN,215.46,142.88,215.46,573.79,SBD,Wraps,M,Open,110,2
David Childers,111.58,TN,249.48,208.65,292.57,750.7,SBD,Wraps,M,Open,118,1
Terry Johnson,127.91,TN,238.14,165.56,260.82,664.51,SBD,Wraps,M,Open,140,1
Billy Pierce,129.73,GA,183.7,161.03,249.48,594.21,SBD,Wraps,M,Open,140,2
Jon Grove,142.43,GA,367.41,170.1,326.59,864.09,SBD,Wraps,M,Open,140+,1
Jonathan Adcock,94.35,TN,215.46,124.74,258.55,598.74,SBD,Wraps,M,Submasters,100,1
Gary Fleenor,107.5,TN,215.46,142.88,226.8,585.13,SBD,Wraps,M,Masters 40-44,110,1
James Searcy Sr,161.03,GA,,,,,SBD,Wraps,M,Masters 40-44,140+,DQ
Mark Farris,108.41,NC,319.78,208.65,276.69,805.13,SBD,Wraps,M,Masters 45-49,110,1
Ricky Minton,106.59,TN,,,,,SBD,Wraps,M,Masters 45-49,110,DQ
Mike Doster,99.79,GA,208.65,142.88,226.8,578.33,SBD,Wraps,M,Masters 60-64,100,1
Scott Sergeant,82.1,TN,206.38,192.78,229.06,628.23,SBD,Single-ply,M,Open,82.5,1
Scott Alford,74.84,TN,233.6,136.08,215.46,585.13,SBD,Single-ply,M,Masters 45-49,75,1
Greg Rolfes,112.94,TN,249.48,183.7,247.21,680.39,SBD,Multi-ply,M,Juniors,118,1
Putt Houston,87.54,MO,319.78,206.38,272.16,798.32,SBD,Multi-ply,M,Open,90,1
Chris Janek,137.89,IL,453.59,317.51,328.85,1099.96,SBD,Multi-ply,M,Open,140,1
Pat Schafer,135.62,NC,408.23,102.06,306.17,816.47,SBD,Multi-ply,M,Open,140,2
Putt Houston,87.54,MO,319.78,206.38,272.16,798.32,SBD,Multi-ply,M,Submasters,90,1
Tracy Johnson #2,99.79,TN,260.82,204.12,247.21,712.14,SBD,Multi-ply,M,Submasters,100,1
Mike Guthery,122.02,MO,294.84,185.97,281.23,762.04,SBD,Multi-ply,M,Submasters,125,1
Jay Moore,135.17,TN,288.03,213.19,288.03,789.25,SBD,Multi-ply,M,Submasters,140,1
Albert Gavaldon,109.77,TN,136.08,,,136.08,S,Wraps,M,Masters 45-49,110,1
Hannah Tallent,53.98,GA,,38.56,92.99,131.54,BD,Raw,F,Pre-Teen,56,1
Todd Gralnik,146.96,GA,,192.78,260.82,453.59,BD,Raw,M,Open,140+,1
Dylan Karr,63.96,GA,,151.95,,151.95,B,Raw,M,Juniors,67.5,1
Josh Brown #8,154.22,TN,,151.95,,151.95,B,Raw,M,Juniors,140+,1
Greg Anderson,93.44,TN,,217.72,,217.72,B,Raw,M,Open,100,1
Jesse Rodgers,117.03,TN,,188.24,,188.24,B,Raw,M,Open,118,1
Josh Kyllo,119.29,AL,,163.29,,163.29,B,Raw,M,Open,125,1
Ben Graves,134.72,KY,,278.96,,278.96,B,Raw,M,Open,140,1
Henderson,133.81,AL,,204.12,,204.12,B,Raw,M,Open,140,2
Angela Adsms,88,TN,,86.18,,86.18,B,Raw,F,Submasters,90,1
Kevin Crump,,GA,,174.63,,174.63,B,Raw,M,Submasters,140+,1
Chip E'Dalgo,112.04,GA,,226.8,,226.8,B,Raw,M,Masters 40-44,118,1
Vikki Traugot,79.38,TN,,83.91,,83.91,B,Raw,F,Masters 45-49,82.5,1
Richard Venable,109.32,GA,,158.76,,158.76,B,Raw,M,Masters 50-54,110,1
Jesse Rodgers,117.03,TN,,188.24,,188.24,B,Raw,M,Masters 50-54,118,1
John Bible,138.35,TN,,195.04,,195.04,B,Raw,M,Masters 50-54,140,1
Billy Coleman,99.79,GA,,136.08,,136.08,B,Raw,M,Masters 60-64,100,1
Tyler Pearson,107.95,TN,,92.99,,92.99,B,Multi-ply,M,Teenage 13-15,110,1
Jacob Hill,117.48,TN,,172.37,,172.37,B,Multi-ply,M,Teenage 13-15,118,1
Matt Britton,139.25,TN,,174.63,,174.63,B,Multi-ply,M,Juniors,140,1
Denise Timbs,74.84,TN,,108.86,,108.86,B,Multi-ply,F,Open,75,1
Scott Sergeant,82.1,TN,,192.78,,192.78,B,Multi-ply,M,Open,82.5,1
Dennise Lowe,99.79,TN,,249.48,,249.48,B,Multi-ply,M,Open,100,1
Chad Brinkley,99.79,TN,,206.38,,206.38,B,Multi-ply,M,Open,100,2
Chris Nunley,106.59,TN,,,,,B,Multi-ply,M,Open,110,DQ
Jeff Weaver,115.21,TN,,272.16,,272.16,B,Multi-ply,M,Open,118,1
Harley Timbs,122.92,TN,,,,,B,Multi-ply,M,Open,125,DQ
Michael Cochran,59.87,AL,,124.74,,124.74,B,Multi-ply,M,Submasters,60,1
Tyler Mullins,99.79,TN,,195.04,,195.04,B,Multi-ply,M,Submasters,100,1
Mike Hood,109.77,TN,,206.38,,206.38,B,Multi-ply,M,Submasters,110,1
Jason Crader,123.38,TN,,,,,B,Multi-ply,M,Submasters,125,DQ
Chris Stinson,133.36,TN,,254.01,,254.01,B,Multi-ply,M,Submasters,140,1
Scott Baker,167.83,TN,,,,,B,Multi-ply,M,Police and Fire,140+,DQ
Jeff Weaver,115.21,TN,,272.16,,272.16,B,Multi-ply,M,Masters 40-44,118,1
Brian Gardner,123.38,TN,,260.82,,260.82,B,Multi-ply,M,Masters 40-44,125,1
Kenneth Millrany,99.79,TN,,290.3,,290.3,B,Multi-ply,M,Masters 45-49,100,1
Charles Smith,74.84,TN,,170.1,,170.1,B,Multi-ply,M,Masters 50-54,75,1
Trey Wright,120.66,AL,,,217.72,217.72,D,Raw,M,Teenage 16-17,125,1
Alex Shelyakou,96.16,TN,,,206.38,206.38,D,Raw,M,Juniors,100,1
Donna Krystik,73.48,TN,,,136.08,136.08,D,Raw,F,Submasters,75,1
Angela Adams,88,TN,,,124.74,124.74,D,Raw,F,Submasters,90,1
Matt Warren,105.69,GA,,,247.21,247.21,D,Raw,M,Open,110,1
Albert Gavaldon,109.77,TN,,,142.88,142.88,D,Raw,M,Masters 45-49,110,1
Mike Cross #1,55.79,TN,,,140.61,140.61,D,Raw,M,Masters 60-64,56,1
